…
    ## New names:
    ## Rows: 71 Columns: 1064
    ## ── Column specification
    ## ──────────────────────────────────────────────────────── Delimiter: "," dbl
    ## (1050): ...1, ACADRED2J3K, ACADREDGOMGB, ACADREDUT3, ACMACKSARG, AFLONCH... lgl
    ## (14): BNOSESHARATL, BSKATCANATL, BTIPSHARATL, BTIPSHARGM, CUSK4X, DOYS...
    ## ℹ Use `spec()` to retrieve the full column specification for this data. ℹ
    ## Specify the column types or set `show_col_types = FALSE` to quiet this message.
    ## • `` -> `...1`

``` r
mcatch
```

    ## # A tibble: 71 × 1,064
    ##     ...1 ACADRED2J3K ACADREDGOMGB ACADREDUT3 ACMACKSARG AFLONCH   ALBAIO ALBAMED
    ##    <dbl>       <dbl>        <dbl>      <dbl>      <dbl>   <dbl>    <dbl>   <dbl>
    ##  1  1950          NA        34300         NA         NA      NA     8.15       0
    ##  2  1951          NA        30100         NA         NA      NA    18.4        0
    ##  3  1952          NA        21400         NA         NA      NA    80          0
    ##  4  1953          NA        16800         NA         NA      NA  1110          0
    ##  5  1954          NA        13000         NA         NA      NA  2850          0
    ##  6  1955          NA        13900         NA         NA      NA  3360          0
    ##  7  1956          NA        14400         NA         NA      NA  5630          0
    ##  8  1957          NA        18500         NA         NA      NA  5340       1700
    ##  9  1958          NA        16000         NA         NA      NA  7300       2900
    ## 10  1959          NA        15500         NA         NA      NA 11700       2900
    ## # ℹ 61 more rows
    ## # ℹ 1,056 more variables: ALBANATL <dbl>, ALBANPAC <dbl>, ALBASATL <dbl>,
    ## #   ALBASPAC <dbl>, ALPLAICBSAI <dbl>, ALSKABSAI <dbl>, AMPL23K <dbl>,
    ## #   AMPL3LNO <dbl>, AMPL3M <dbl>, AMPL3Ps <dbl>, AMPL4T <dbl>, AMPL4VWX <dbl>,
    ## #   AMPL5YZ <dbl>, ANCHIXa <dbl>, ANCHMEDGSA1 <dbl>, ANCHMEDGSA16 <dbl>,
    ## #   `ANCHMEDGSA17-18` <dbl>, ANCHMEDGSA19 <dbl>, ANCHMEDGSA20 <dbl>,
    ## #   `ANCHMEDGSA22-23` <dbl>, ANCHMEDGSA29 <dbl>, ANCHMEDGSA6 <dbl>, …
…
``` r
ts1<-read_xlsx(xlsx, sheet="timeseries.1")
ts2<-read_xlsx(xlsx, sheet="timeseries.2")
area<- read_xlsx(xlsx, sheet= "area")
stock<- read_xlsx(xlsx, sheet= "stock")
metrics<- read_xlsx(xlsx, sheet= "tsmetrics")
metrics
```

    ## # A tibble: 452 × 6
    ##    tscategory             tsshort       tslong tsunitsshort tsunitslong tsunique
    ##    <chr>                  <chr>         <chr>  <chr>        <chr>       <chr>   
    ##  1 OTHER TIME SERIES DATA AQ            Aquac… MT           metric tons AQ-MT   
    ##  2 OTHER TIME SERIES DATA ASP           Annua… MT           Metric tons ASP-MT  
    ##  3 TOTAL BIOMASS          BdivBmgtpref  Gener… dimensionle… dimensionl… BdivBmg…
    ##  4 TOTAL BIOMASS          BdivBmgttouse Gener… dimensionle… dimensionl… BdivBmg…
    ##  5 TOTAL BIOMASS          BdivBmsypref  Gener… dimensionle… dimensionl… BdivBms…
    ##  6 TOTAL BIOMASS          BdivBmsytouse Gener… dimensionle… dimensionl… BdivBms…
    ##  7 OTHER TIME SERIES DATA BYCAT         Indus… MT           Metric tons BYCAT-MT
    ##  8 CATCH or LANDINGS      Cadvised-CMB  Scien… MT           Metric tons Cadvise…
    ##  9 CATCH or LANDINGS      Cadvised      Scien… MT           Metric tons Cadvise…
    ## 10 CATCH or LANDINGS      CdivMEANC     Catch… ratio        ratio       CdivMEA…
    ## # ℹ 442 more rows
…
    ## Joining with `by = join_by(stockid, stocklong)`

``` r
most_recent
```

    ## # A tibble: 27 × 1
    ##    assessid                               
    ##    <chr>                                  
    ##  1 AFWG-CODNEAR-1946-2020-ICESIMP2021-2   
    ##  2 AFWG-CODNEARNCW-1984-2019-ICESIMP2021-2
    ##  3 DFO-MAR-COD4VsW-1958-2002-PREFONTAINE  
    ##  4 DFO-MAR-COD4X5Yb-1960-2018-ASHBROOK    
    ##  5 DFO-NFLD-COD2J3KL-1959-2018-ASHBROOK   
    ##  6 DFO-NFLD-COD3Ps-1959-2018-ASHBROOK     
    ##  7 DFO-QUE-COD3Pn4RS-1964-2019-ASHBROOK   
    ##  8 DFO-SG-COD4TVn-1917-2018-ASHBROOK      
    ##  9 NAFO-SC-COD3M-1960-2012-CHING          
    ## 10 NAFO-SC-COD3NO-1953-2011-CHING         
    ## # ℹ 17 more rows

We are looking at all the CATCH or LANDINGS in Metric tons from the
“metrics” data sheet.

``` r
units<-metrics |> 
  filter(tscategory=="CATCH or LANDINGS") |>
  filter(tsunitslong=="Metric tons")
units
```

    ## # A tibble: 37 × 6
    ##    tscategory        tsshort      tslong       tsunitsshort tsunitslong tsunique
    ##    <chr>             <chr>        <chr>        <chr>        <chr>       <chr>   
    ##  1 CATCH or LANDINGS Cadvised-CMB Scientific … MT           Metric tons Cadvise…
    ##  2 CATCH or LANDINGS Cadvised     Scientific … MT           Metric tons Cadvise…
    ##  3 CATCH or LANDINGS Cpair-CMB    Catch or la… MT           Metric tons Cpair-C…
    ##  4 CATCH or LANDINGS Cpair        Catch or la… MT           Metric tons Cpair-MT
    ##  5 CATCH or LANDINGS CUSTC        Customary c… MT           Metric tons CUSTC-MT
    ##  6 CATCH or LANDINGS ILLC         Illegal cat… MT           Metric tons ILLC-MT 
    ##  7 CATCH or LANDINGS RecC         Recreationa… MT           Metric tons RecC-MT 
    ##  8 CATCH or LANDINGS TAC-1        Total allow… MT           Metric tons TAC-1-MT
    ##  9 CATCH or LANDINGS TAC-2        Total allow… MT           Metric tons TAC-2-MT
    ## 10 CATCH or LANDINGS TAC-A1       Total allow… MT           Metric tons TAC-A1-…
    ## # ℹ 27 more rows

Next, we are combining the ts table with the “metrics” table we just
created and reassigned “tsid” to the “tsunique” column.

``` r
ts<-ts|> left_join(metrics, by=c("tsid"="tsunique"))
ts
```

    ## # A tibble: 122,255 × 11
    ##    assessid     stockid stocklong tsid  tsyear tsvalue tscategory tsshort tslong
    ##    <chr>        <chr>   <chr>     <chr>  <dbl>   <dbl> <chr>      <chr>   <chr> 
    ##  1 ABARES-BGRD… BGRDRSE Blue gre… TCbe…   1960      NA CATCH or … TCbest  Gener…
    ##  2 ABARES-BGRD… BGRDRSE Blue gre… TCbe…   1961      NA CATCH or … TCbest  Gener…
    ##  3 ABARES-BGRD… BGRDRSE Blue gre… TCbe…   1962      NA CATCH or … TCbest  Gener…
    ##  4 ABARES-BGRD… BGRDRSE Blue gre… TCbe…   1963      NA CATCH or … TCbest  Gener…
    ##  5 ABARES-BGRD… BGRDRSE Blue gre… TCbe…   1964      NA CATCH or … TCbest  Gener…
    ##  6 ABARES-BGRD… BGRDRSE Blue gre… TCbe…   1965      NA CATCH or … TCbest  Gener…
    ##  7 ABARES-BGRD… BGRDRSE Blue gre… TCbe…   1966      NA CATCH or … TCbest  Gener…
    ##  8 ABARES-BGRD… BGRDRSE Blue gre… TCbe…   1967      NA CATCH or … TCbest  Gener…
    ##  9 ABARES-BGRD… BGRDRSE Blue gre… TCbe…   1968      NA CATCH or … TCbest  Gener…
    ## 10 ABARES-BGRD… BGRDRSE Blue gre… TCbe…   1969      NA CATCH or … TCbest  Gener…
    ## # ℹ 122,245 more rows
    ## # ℹ 2 more variables: tsunitsshort <chr>, tsunitslong <chr>

Because we want to observe the regions in the East Coast, we decided to
filter the “area” sheet by country (Canada) and subsequently by the
distinct number of areacodes within Canada (there are 207 total).

``` r
area |> 
  filter(country == "Canada") |>
  distinct(country, areacode)
```

    ## # A tibble: 207 × 2
    ##    country areacode   
    ##    <chr>   <chr>      
    ##  1 Canada  23K        
    ##  2 Canada  2G-3K      
    ##  3 Canada  2HJ        
    ##  4 Canada  2HJ3KLNOP4R
    ##  5 Canada  2J         
    ##  6 Canada  2J3K       
    ##  7 Canada  2J3K-3LNO  
    ##  8 Canada  2J3KL      
    ##  9 Canada  2J3KLNOPs  
    ## 10 Canada  3K         
    ## # ℹ 197 more rows
…
``` r
fish <- ts|> 
  left_join(metrics, by=c("tsid"="tsunique"))|>
  left_join(stock)|>
  left_join(area)
```

    ## Joining with `by = join_by(stockid, stocklong)`
    ## Joining with `by = join_by(areaid)`

``` r
fish
```

    ## # A tibble: 122,255 × 34
    ##    assessid        stockid stocklong tsid  tsyear tsvalue tscategory.x tsshort.x
    ##    <chr>           <chr>   <chr>     <chr>  <dbl>   <dbl> <chr>        <chr>    
    ##  1 ABARES-BGRDRSE… BGRDRSE Blue gre… TCbe…   1960      NA CATCH or LA… TCbest   
    ##  2 ABARES-BGRDRSE… BGRDRSE Blue gre… TCbe…   1961      NA CATCH or LA… TCbest   
    ##  3 ABARES-BGRDRSE… BGRDRSE Blue gre… TCbe…   1962      NA CATCH or LA… TCbest   
    ##  4 ABARES-BGRDRSE… BGRDRSE Blue gre… TCbe…   1963      NA CATCH or LA… TCbest   
    ##  5 ABARES-BGRDRSE… BGRDRSE Blue gre… TCbe…   1964      NA CATCH or LA… TCbest   
    ##  6 ABARES-BGRDRSE… BGRDRSE Blue gre… TCbe…   1965      NA CATCH or LA… TCbest   
    ##  7 ABARES-BGRDRSE… BGRDRSE Blue gre… TCbe…   1966      NA CATCH or LA… TCbest   
    ##  8 ABARES-BGRDRSE… BGRDRSE Blue gre… TCbe…   1967      NA CATCH or LA… TCbest   
    ##  9 ABARES-BGRDRSE… BGRDRSE Blue gre… TCbe…   1968      NA CATCH or LA… TCbest   
    ## 10 ABARES-BGRDRSE… BGRDRSE Blue gre… TCbe…   1969      NA CATCH or LA… TCbest   
    ## # ℹ 122,245 more rows
    ## # ℹ 26 more variables: tslong.x <chr>, tsunitsshort.x <chr>,
    ## #   tsunitslong.x <chr>, tscategory.y <chr>, tsshort.y <chr>, tslong.y <chr>,
    ## #   tsunitsshort.y <chr>, tsunitslong.y <chr>, tsn <dbl>, scientificname <chr>,
    ## #   commonname <chr>, areaid <chr>, region <chr>, primary_country <chr>,
    ## #   primary_FAOarea <dbl>, ISO3_code <chr>, GRSF_uuid <chr>, GRSF_areaid <chr>,
    ## #   inmyersdb <dbl>, myersstockid <chr>, state <chr>, country <chr>, …
…
``` r
cod <- fish |> 
  filter(scientificname == "Gadus morhua") |>
  filter(country == "Canada") |>
  inner_join(most_recent, by = "assessid") 
cod
```

    ## # A tibble: 378 × 34
    ##    assessid        stockid stocklong tsid  tsyear tsvalue tscategory.x tsshort.x
    ##    <chr>           <chr>   <chr>     <chr>  <dbl>   <dbl> <chr>        <chr>    
    ##  1 DFO-MAR-COD4Vs… COD4VsW Atlantic… TCbe…   1958   38600 CATCH or LA… TCbest   
    ##  2 DFO-MAR-COD4Vs… COD4VsW Atlantic… TCbe…   1959   66000 CATCH or LA… TCbest   
    ##  3 DFO-MAR-COD4Vs… COD4VsW Atlantic… TCbe…   1960   50600 CATCH or LA… TCbest   
    ##  4 DFO-MAR-COD4Vs… COD4VsW Atlantic… TCbe…   1961   66300 CATCH or LA… TCbest   
    ##  5 DFO-MAR-COD4Vs… COD4VsW Atlantic… TCbe…   1962   65200 CATCH or LA… TCbest   
    ##  6 DFO-MAR-COD4Vs… COD4VsW Atlantic… TCbe…   1963   68200 CATCH or LA… TCbest   
    ##  7 DFO-MAR-COD4Vs… COD4VsW Atlantic… TCbe…   1964   63300 CATCH or LA… TCbest   
    ##  8 DFO-MAR-COD4Vs… COD4VsW Atlantic… TCbe…   1965   71000 CATCH or LA… TCbest   
    ##  9 DFO-MAR-COD4Vs… COD4VsW Atlantic… TCbe…   1966   68500 CATCH or LA… TCbest   
    ## 10 DFO-MAR-COD4Vs… COD4VsW Atlantic… TCbe…   1967   54200 CATCH or LA… TCbest   
    ## # ℹ 368 more rows
    ## # ℹ 26 more variables: tslong.x <chr>, tsunitsshort.x <chr>,
    ## #   tsunitslong.x <chr>, tscategory.y <chr>, tsshort.y <chr>, tslong.y <chr>,
    ## #   tsunitsshort.y <chr>, tsunitslong.y <chr>, tsn <dbl>, scientificname <chr>,
    ## #   commonname <chr>, areaid <chr>, region <chr>, primary_country <chr>,
    ## #   primary_FAOarea <dbl>, ISO3_code <chr>, GRSF_uuid <chr>, GRSF_areaid <chr>,
    ## #   inmyersdb <dbl>, myersstockid <chr>, state <chr>, country <chr>, …

We are trying to find the specific stock used to generate the graphs in
the published data. To do this, we filtered the data via stockid and
areaid. In this case the relevant area ID was Canada-DFO-2J3KL.

``` r
cod_2J3KL <- fish |>
  filter(scientificname == "Gadus morhua") |>
  filter(stockid == "COD2J3KL") |>
  filter(areaid == "Canada-DFO-2J3KL") |>
  inner_join(most_recent, by = "assessid")
cod_2J3KL
```

    ## # A tibble: 59 × 34
    ##    assessid        stockid stocklong tsid  tsyear tsvalue tscategory.x tsshort.x
    ##    <chr>           <chr>   <chr>     <chr>  <dbl>   <dbl> <chr>        <chr>    
    ##  1 DFO-NFLD-COD2J… COD2J3… Atlantic… TCbe…   1959 363510. CATCH or LA… TCbest   
    ##  2 DFO-NFLD-COD2J… COD2J3… Atlantic… TCbe…   1960 463788. CATCH or LA… TCbest   
    ##  3 DFO-NFLD-COD2J… COD2J3… Atlantic… TCbe…   1961 506407. CATCH or LA… TCbest   
    ##  4 DFO-NFLD-COD2J… COD2J3… Atlantic… TCbe…   1962 506407. CATCH or LA… TCbest   
    ##  5 DFO-NFLD-COD2J… COD2J3… Atlantic… TCbe…   1963 511421. CATCH or LA… TCbest   
    ##  6 DFO-NFLD-COD2J… COD2J3… Atlantic… TCbe…   1964 601671. CATCH or LA… TCbest   
    ##  7 DFO-NFLD-COD2J… COD2J3… Atlantic… TCbe…   1965 546518. CATCH or LA… TCbest   
    ##  8 DFO-NFLD-COD2J… COD2J3… Atlantic… TCbe…   1966 518942. CATCH or LA… TCbest   
    ##  9 DFO-NFLD-COD2J… COD2J3… Atlantic… TCbe…   1967 611699. CATCH or LA… TCbest   
    ## 10 DFO-NFLD-COD2J… COD2J3… Atlantic… TCbe…   1968 814763. CATCH or LA… TCbest   
    ## # ℹ 49 more rows
    ## # ℹ 26 more variables: tslong.x <chr>, tsunitsshort.x <chr>,
    ## #   tsunitslong.x <chr>, tscategory.y <chr>, tsshort.y <chr>, tslong.y <chr>,
    ## #   tsunitsshort.y <chr>, tsunitslong.y <chr>, tsn <dbl>, scientificname <chr>,
    ## #   commonname <chr>, areaid <chr>, region <chr>, primary_country <chr>,
    ## #   primary_FAOarea <dbl>, ISO3_code <chr>, GRSF_uuid <chr>, GRSF_areaid <chr>,
    ## #   inmyersdb <dbl>, myersstockid <chr>, state <chr>, country <chr>, …
…
Once we determine the relevant stock in the specific area, we need to
determine during which years the stock collapsed. In this case,
collapsed is determined by whether the total catch was less than 10% of
the historical maximum. However, the historical maximum is contingent to
the time span of the data.

``` r
collapse<-cod_2J3KL |> 
  select(tsyear, tsvalue, stockid, areaid) |>
  mutate(collapsed = tsvalue < 0.1*max(tsvalue, na.rm=TRUE))
collapse
```

    ## # A tibble: 59 × 5
    ##    tsyear tsvalue stockid  areaid           collapsed
    ##     <dbl>   <dbl> <chr>    <chr>            <lgl>    
    ##  1   1959 363510. COD2J3KL Canada-DFO-2J3KL FALSE    
    ##  2   1960 463788. COD2J3KL Canada-DFO-2J3KL FALSE    
    ##  3   1961 506407. COD2J3KL Canada-DFO-2J3KL FALSE    
    ##  4   1962 506407. COD2J3KL Canada-DFO-2J3KL FALSE    
    ##  5   1963 511421. COD2J3KL Canada-DFO-2J3KL FALSE    
    ##  6   1964 601671. COD2J3KL Canada-DFO-2J3KL FALSE    
    ##  7   1965 546518. COD2J3KL Canada-DFO-2J3KL FALSE    
    ##  8   1966 518942. COD2J3KL Canada-DFO-2J3KL FALSE    
    ##  9   1967 611699. COD2J3KL Canada-DFO-2J3KL FALSE    
    ## 10   1968 814763. COD2J3KL Canada-DFO-2J3KL FALSE    
    ## # ℹ 49 more rows
…
``` r
total_cod <- fish |> 
  filter(scientificname == "Gadus morhua") |>
  filter(country == "Canada") |>
  inner_join(most_recent, by = "assessid") 
total_cod
```

    ## # A tibble: 378 × 34
    ##    assessid        stockid stocklong tsid  tsyear tsvalue tscategory.x tsshort.x
    ##    <chr>           <chr>   <chr>     <chr>  <dbl>   <dbl> <chr>        <chr>    
    ##  1 DFO-MAR-COD4Vs… COD4VsW Atlantic… TCbe…   1958   38600 CATCH or LA… TCbest   
    ##  2 DFO-MAR-COD4Vs… COD4VsW Atlantic… TCbe…   1959   66000 CATCH or LA… TCbest   
    ##  3 DFO-MAR-COD4Vs… COD4VsW Atlantic… TCbe…   1960   50600 CATCH or LA… TCbest   
    ##  4 DFO-MAR-COD4Vs… COD4VsW Atlantic… TCbe…   1961   66300 CATCH or LA… TCbest   
    ##  5 DFO-MAR-COD4Vs… COD4VsW Atlantic… TCbe…   1962   65200 CATCH or LA… TCbest   
    ##  6 DFO-MAR-COD4Vs… COD4VsW Atlantic… TCbe…   1963   68200 CATCH or LA… TCbest   
    ##  7 DFO-MAR-COD4Vs… COD4VsW Atlantic… TCbe…   1964   63300 CATCH or LA… TCbest   
    ##  8 DFO-MAR-COD4Vs… COD4VsW Atlantic… TCbe…   1965   71000 CATCH or LA… TCbest   
    ##  9 DFO-MAR-COD4Vs… COD4VsW Atlantic… TCbe…   1966   68500 CATCH or LA… TCbest   
    ## 10 DFO-MAR-COD4Vs… COD4VsW Atlantic… TCbe…   1967   54200 CATCH or LA… TCbest   
    ## # ℹ 368 more rows
    ## # ℹ 26 more variables: tslong.x <chr>, tsunitsshort.x <chr>,
    ## #   tsunitslong.x <chr>, tscategory.y <chr>, tsshort.y <chr>, tslong.y <chr>,
    ## #   tsunitsshort.y <chr>, tsunitslong.y <chr>, tsn <dbl>, scientificname <chr>,
    ## #   commonname <chr>, areaid <chr>, region <chr>, primary_country <chr>,
    ## #   primary_FAOarea <dbl>, ISO3_code <chr>, GRSF_uuid <chr>, GRSF_areaid <chr>,
    ## #   inmyersdb <dbl>, myersstockid <chr>, state <chr>, country <chr>, …
…
``` r
total_cod
```

    ## # A tibble: 378 × 35
    ##    assessid        stockid stocklong tsid  tsyear tsvalue tscategory.x tsshort.x
    ##    <chr>           <chr>   <chr>     <chr>  <dbl>   <dbl> <chr>        <chr>    
    ##  1 DFO-MAR-COD4Vs… COD4VsW Atlantic… TCbe…   1958   38600 CATCH or LA… TCbest   
    ##  2 DFO-MAR-COD4Vs… COD4VsW Atlantic… TCbe…   1959   66000 CATCH or LA… TCbest   
    ##  3 DFO-MAR-COD4Vs… COD4VsW Atlantic… TCbe…   1960   50600 CATCH or LA… TCbest   
    ##  4 DFO-MAR-COD4Vs… COD4VsW Atlantic… TCbe…   1961   66300 CATCH or LA… TCbest   
    ##  5 DFO-MAR-COD4Vs… COD4VsW Atlantic… TCbe…   1962   65200 CATCH or LA… TCbest   
    ##  6 DFO-MAR-COD4Vs… COD4VsW Atlantic… TCbe…   1963   68200 CATCH or LA… TCbest   
    ##  7 DFO-MAR-COD4Vs… COD4VsW Atlantic… TCbe…   1964   63300 CATCH or LA… TCbest   
    ##  8 DFO-MAR-COD4Vs… COD4VsW Atlantic… TCbe…   1965   71000 CATCH or LA… TCbest   
    ##  9 DFO-MAR-COD4Vs… COD4VsW Atlantic… TCbe…   1966   68500 CATCH or LA… TCbest   
    ## 10 DFO-MAR-COD4Vs… COD4VsW Atlantic… TCbe…   1967   54200 CATCH or LA… TCbest   
    ## # ℹ 368 more rows
    ## # ℹ 27 more variables: tslong.x <chr>, tsunitsshort.x <chr>,
    ## #   tsunitslong.x <chr>, tscategory.y <chr>, tsshort.y <chr>, tslong.y <chr>,
    ## #   tsunitsshort.y <chr>, tsunitslong.y <chr>, tsn <dbl>, scientificname <chr>,
    ## #   commonname <chr>, areaid <chr>, region <chr>, primary_country <chr>,
    ## #   primary_FAOarea <dbl>, ISO3_code <chr>, GRSF_uuid <chr>, GRSF_areaid <chr>,
    ## #   inmyersdb <dbl>, myersstockid <chr>, state <chr>, country <chr>, …
…
    ## `summarise()` has grouped output by 'tsyear'. You can override using the
    ## `.groups` argument.

``` r
#collapse value true if stock has dropped below 10% of historical maximum
all_species
```

    ## # A tibble: 21,248 × 6
    ##    tsyear scientificname    total_catch historical_max is_collapse ever_collapse
    ##     <dbl> <chr>                   <dbl>          <dbl> <lgl>       <lgl>        
    ##  1   1800 Hippoglossus hip…           0              0 FALSE       FALSE        
    ##  2   1801 Hippoglossus hip…           0              0 FALSE       FALSE        
    ##  3   1802 Hippoglossus hip…           0              0 FALSE       FALSE        
    ##  4   1803 Hippoglossus hip…           0              0 FALSE       FALSE        
    ##  5   1804 Hippoglossus hip…           0              0 FALSE       FALSE        
    ##  6   1805 Hippoglossus hip…           0              0 FALSE       FALSE        
    ##  7   1806 Hippoglossus hip…           0              0 FALSE       FALSE        
    ##  8   1807 Hippoglossus hip…           0              0 FALSE       FALSE        
    ##  9   1808 Hippoglossus hip…           0              0 FALSE       FALSE        
    ## 10   1809 Hippoglossus hip…           0              0 FALSE       FALSE        
    ## # ℹ 21,238 more rows
…
